
<svg width="151px" height="151px" viewBox="0 0 151 151" version="1.1" xmlns="http://www.w3.org/2000/svg" xmlns:xlink="http://www.w3.org/1999/xlink">
  <!-- Generator: Sketch 51.2 (57519) - http://www.bohemiancoding.com/sketch -->
  <desc>Created with Sketch.</desc>
  <defs></defs>
  <g id="Custom-icons" stroke="none" stroke-width="1" fill="none" fill-rule="evenodd">
    <g id="Artboard" transform="translate(-244.000000, -65.000000)" fill="#2773FF" stroke="#2773FF" stroke-width="23">
      <circle id="Oval" cx="319.5" cy="140.5" r="64"></circle>
    </g>
  </g>
</svg>
