<svg width="auto" height="auto" viewBox="0 0 454 454" fill="none" xmlns="http://www.w3.org/2000/svg">
  <rect y="227" width="321.026" height="321.026" rx="50" transform="rotate(-45 0 227)" fill="url(#paint0_linear)"/>
  <g filter="url(#filter0_d)">
    <rect x="71" y="71" width="312" height="312" rx="20" fill="white"/>
  </g>
  <rect x="144" y="102" width="208" height="250" fill="#55EBBE" fill-opacity="0.2"/>
  <rect x="102" y="310" width="208" height="250" transform="rotate(-90 102 310)" fill="#4285F4" fill-opacity="0.15"/>
  <rect x="148.5" y="106.5" width="91" height="91" rx="5.5" fill="white" stroke="#145D80"/>
  <path d="M182.928 132.6V141H182.076V134.28L178.776 139.932H178.356L175.056 134.316V141H174.204V132.6H174.936L178.584 138.828L182.196 132.6H182.928ZM187.693 134.64C188.517 134.64 189.149 134.848 189.589 135.264C190.029 135.672 190.249 136.28 190.249 137.088V141H189.433V140.016C189.241 140.344 188.957 140.6 188.581 140.784C188.213 140.968 187.773 141.06 187.261 141.06C186.557 141.06 185.997 140.892 185.581 140.556C185.165 140.22 184.957 139.776 184.957 139.224C184.957 138.688 185.149 138.256 185.533 137.928C185.925 137.6 186.545 137.436 187.393 137.436H189.397V137.052C189.397 136.508 189.245 136.096 188.941 135.816C188.637 135.528 188.193 135.384 187.609 135.384C187.209 135.384 186.825 135.452 186.457 135.588C186.089 135.716 185.773 135.896 185.509 136.128L185.125 135.492C185.445 135.22 185.829 135.012 186.277 134.868C186.725 134.716 187.197 134.64 187.693 134.64ZM187.393 140.388C187.873 140.388 188.285 140.28 188.629 140.064C188.973 139.84 189.229 139.52 189.397 139.104V138.072H187.417C186.337 138.072 185.797 138.448 185.797 139.2C185.797 139.568 185.937 139.86 186.217 140.076C186.497 140.284 186.889 140.388 187.393 140.388ZM193.379 135.924C193.579 135.5 193.875 135.18 194.267 134.964C194.667 134.748 195.159 134.64 195.743 134.64V135.468L195.539 135.456C194.875 135.456 194.355 135.66 193.979 136.068C193.603 136.476 193.415 137.048 193.415 137.784V141H192.563V134.688H193.379V135.924ZM199.626 137.832L198.138 139.2V141H197.286V132.096H198.138V138.132L201.906 134.688H202.962L200.262 137.268L203.214 141H202.17L199.626 137.832ZM209.731 138.108H204.451C204.499 138.764 204.751 139.296 205.207 139.704C205.663 140.104 206.239 140.304 206.935 140.304C207.327 140.304 207.687 140.236 208.015 140.1C208.343 139.956 208.627 139.748 208.867 139.476L209.347 140.028C209.067 140.364 208.715 140.62 208.291 140.796C207.875 140.972 207.415 141.06 206.911 141.06C206.263 141.06 205.687 140.924 205.183 140.652C204.687 140.372 204.299 139.988 204.019 139.5C203.739 139.012 203.599 138.46 203.599 137.844C203.599 137.228 203.731 136.676 203.995 136.188C204.267 135.7 204.635 135.32 205.099 135.048C205.571 134.776 206.099 134.64 206.683 134.64C207.267 134.64 207.791 134.776 208.255 135.048C208.719 135.32 209.083 135.7 209.347 136.188C209.611 136.668 209.743 137.22 209.743 137.844L209.731 138.108ZM206.683 135.372C206.075 135.372 205.563 135.568 205.147 135.96C204.739 136.344 204.507 136.848 204.451 137.472H208.927C208.871 136.848 208.635 136.344 208.219 135.96C207.811 135.568 207.299 135.372 206.683 135.372ZM214.801 140.616C214.641 140.76 214.441 140.872 214.201 140.952C213.969 141.024 213.725 141.06 213.469 141.06C212.877 141.06 212.421 140.9 212.101 140.58C211.781 140.26 211.621 139.808 211.621 139.224V135.408H210.493V134.688H211.621V133.308H212.473V134.688H214.393V135.408H212.473V139.176C212.473 139.552 212.565 139.84 212.749 140.04C212.941 140.232 213.213 140.328 213.565 140.328C213.741 140.328 213.909 140.3 214.069 140.244C214.237 140.188 214.381 140.108 214.501 140.004L214.801 140.616ZM168.382 147.096V156H167.566V154.752C167.31 155.176 166.97 155.5 166.546 155.724C166.13 155.948 165.658 156.06 165.13 156.06C164.538 156.06 164.002 155.924 163.522 155.652C163.042 155.38 162.666 155 162.394 154.512C162.122 154.024 161.986 153.468 161.986 152.844C161.986 152.22 162.122 151.664 162.394 151.176C162.666 150.688 163.042 150.312 163.522 150.048C164.002 149.776 164.538 149.64 165.13 149.64C165.642 149.64 166.102 149.748 166.51 149.964C166.926 150.172 167.266 150.48 167.53 150.888V147.096H168.382ZM165.202 155.304C165.642 155.304 166.038 155.204 166.39 155.004C166.75 154.796 167.03 154.504 167.23 154.128C167.438 153.752 167.542 153.324 167.542 152.844C167.542 152.364 167.438 151.936 167.23 151.56C167.03 151.184 166.75 150.896 166.39 150.696C166.038 150.488 165.642 150.384 165.202 150.384C164.754 150.384 164.35 150.488 163.99 150.696C163.638 150.896 163.358 151.184 163.15 151.56C162.95 151.936 162.85 152.364 162.85 152.844C162.85 153.324 162.95 153.752 163.15 154.128C163.358 154.504 163.638 154.796 163.99 155.004C164.35 155.204 164.754 155.304 165.202 155.304ZM176.25 153.108H170.97C171.018 153.764 171.27 154.296 171.726 154.704C172.182 155.104 172.758 155.304 173.454 155.304C173.846 155.304 174.206 155.236 174.534 155.1C174.862 154.956 175.146 154.748 175.386 154.476L175.866 155.028C175.586 155.364 175.234 155.62 174.81 155.796C174.394 155.972 173.934 156.06 173.43 156.06C172.782 156.06 172.206 155.924 171.702 155.652C171.206 155.372 170.818 154.988 170.538 154.5C170.258 154.012 170.118 153.46 170.118 152.844C170.118 152.228 170.25 151.676 170.514 151.188C170.786 150.7 171.154 150.32 171.618 150.048C172.09 149.776 172.618 149.64 173.202 149.64C173.786 149.64 174.31 149.776 174.774 150.048C175.238 150.32 175.602 150.7 175.866 151.188C176.13 151.668 176.262 152.22 176.262 152.844L176.25 153.108ZM173.202 150.372C172.594 150.372 172.082 150.568 171.666 150.96C171.258 151.344 171.026 151.848 170.97 152.472H175.446C175.39 151.848 175.154 151.344 174.738 150.96C174.33 150.568 173.818 150.372 173.202 150.372ZM183.183 149.688L180.375 156H179.499L176.703 149.688H177.591L179.955 155.064L182.343 149.688H183.183ZM189.704 153.108H184.424C184.472 153.764 184.724 154.296 185.18 154.704C185.636 155.104 186.212 155.304 186.908 155.304C187.3 155.304 187.66 155.236 187.988 155.1C188.316 154.956 188.6 154.748 188.84 154.476L189.32 155.028C189.04 155.364 188.688 155.62 188.264 155.796C187.848 155.972 187.388 156.06 186.884 156.06C186.236 156.06 185.66 155.924 185.156 155.652C184.66 155.372 184.272 154.988 183.992 154.5C183.712 154.012 183.572 153.46 183.572 152.844C183.572 152.228 183.704 151.676 183.968 151.188C184.24 150.7 184.608 150.32 185.072 150.048C185.544 149.776 186.072 149.64 186.656 149.64C187.24 149.64 187.764 149.776 188.228 150.048C188.692 150.32 189.056 150.7 189.32 151.188C189.584 151.668 189.716 152.22 189.716 152.844L189.704 153.108ZM186.656 150.372C186.048 150.372 185.536 150.568 185.12 150.96C184.712 151.344 184.48 151.848 184.424 152.472H188.9C188.844 151.848 188.608 151.344 188.192 150.96C187.784 150.568 187.272 150.372 186.656 150.372ZM191.45 147.096H192.302V156H191.45V147.096ZM197.252 156.06C196.644 156.06 196.096 155.924 195.608 155.652C195.12 155.372 194.736 154.988 194.456 154.5C194.176 154.012 194.036 153.46 194.036 152.844C194.036 152.228 194.176 151.676 194.456 151.188C194.736 150.7 195.12 150.32 195.608 150.048C196.096 149.776 196.644 149.64 197.252 149.64C197.86 149.64 198.408 149.776 198.896 150.048C199.384 150.32 199.764 150.7 200.036 151.188C200.316 151.676 200.456 152.228 200.456 152.844C200.456 153.46 200.316 154.012 200.036 154.5C199.764 154.988 199.384 155.372 198.896 155.652C198.408 155.924 197.86 156.06 197.252 156.06ZM197.252 155.304C197.7 155.304 198.1 155.204 198.452 155.004C198.812 154.796 199.092 154.504 199.292 154.128C199.492 153.752 199.592 153.324 199.592 152.844C199.592 152.364 199.492 151.936 199.292 151.56C199.092 151.184 198.812 150.896 198.452 150.696C198.1 150.488 197.7 150.384 197.252 150.384C196.804 150.384 196.4 150.488 196.04 150.696C195.688 150.896 195.408 151.184 195.2 151.56C195 151.936 194.9 152.364 194.9 152.844C194.9 153.324 195 153.752 195.2 154.128C195.408 154.504 195.688 154.796 196.04 155.004C196.4 155.204 196.804 155.304 197.252 155.304ZM205.448 149.64C206.04 149.64 206.576 149.776 207.056 150.048C207.536 150.312 207.912 150.688 208.184 151.176C208.456 151.664 208.592 152.22 208.592 152.844C208.592 153.476 208.456 154.036 208.184 154.524C207.912 155.012 207.536 155.392 207.056 155.664C206.584 155.928 206.048 156.06 205.448 156.06C204.936 156.06 204.472 155.956 204.056 155.748C203.648 155.532 203.312 155.22 203.048 154.812V158.328H202.196V149.688H203.012V150.936C203.268 150.52 203.604 150.2 204.02 149.976C204.444 149.752 204.92 149.64 205.448 149.64ZM205.388 155.304C205.828 155.304 206.228 155.204 206.588 155.004C206.948 154.796 207.228 154.504 207.428 154.128C207.636 153.752 207.74 153.324 207.74 152.844C207.74 152.364 207.636 151.94 207.428 151.572C207.228 151.196 206.948 150.904 206.588 150.696C206.228 150.488 205.828 150.384 205.388 150.384C204.94 150.384 204.536 150.488 204.176 150.696C203.824 150.904 203.544 151.196 203.336 151.572C203.136 151.94 203.036 152.364 203.036 152.844C203.036 153.324 203.136 153.752 203.336 154.128C203.544 154.504 203.824 154.796 204.176 155.004C204.536 155.204 204.94 155.304 205.388 155.304ZM218.201 149.64C218.993 149.64 219.613 149.868 220.061 150.324C220.517 150.78 220.745 151.452 220.745 152.34V156H219.893V152.424C219.893 151.768 219.733 151.268 219.413 150.924C219.101 150.58 218.657 150.408 218.081 150.408C217.425 150.408 216.909 150.612 216.533 151.02C216.157 151.42 215.969 151.976 215.969 152.688V156H215.117V152.424C215.117 151.768 214.957 151.268 214.637 150.924C214.325 150.58 213.877 150.408 213.293 150.408C212.645 150.408 212.129 150.612 211.745 151.02C211.369 151.42 211.181 151.976 211.181 152.688V156H210.329V149.688H211.145V150.84C211.369 150.456 211.681 150.16 212.081 149.952C212.481 149.744 212.941 149.64 213.461 149.64C213.989 149.64 214.445 149.752 214.829 149.976C215.221 150.2 215.513 150.532 215.705 150.972C215.937 150.556 216.269 150.232 216.701 150C217.141 149.76 217.641 149.64 218.201 149.64ZM222.587 152.376H225.731V153.12H222.587V152.376ZM190.565 168.108H185.285C185.333 168.764 185.585 169.296 186.041 169.704C186.497 170.104 187.073 170.304 187.769 170.304C188.161 170.304 188.521 170.236 188.849 170.1C189.177 169.956 189.461 169.748 189.701 169.476L190.181 170.028C189.901 170.364 189.549 170.62 189.125 170.796C188.709 170.972 188.249 171.06 187.745 171.06C187.097 171.06 186.521 170.924 186.017 170.652C185.521 170.372 185.133 169.988 184.853 169.5C184.573 169.012 184.433 168.46 184.433 167.844C184.433 167.228 184.565 166.676 184.829 166.188C185.101 165.7 185.469 165.32 185.933 165.048C186.405 164.776 186.933 164.64 187.517 164.64C188.101 164.64 188.625 164.776 189.089 165.048C189.553 165.32 189.917 165.7 190.181 166.188C190.445 166.668 190.577 167.22 190.577 167.844L190.565 168.108ZM187.517 165.372C186.909 165.372 186.397 165.568 185.981 165.96C185.573 166.344 185.341 166.848 185.285 167.472H189.761C189.705 166.848 189.469 166.344 189.053 165.96C188.645 165.568 188.133 165.372 187.517 165.372ZM195.527 164.64C196.319 164.64 196.947 164.872 197.411 165.336C197.883 165.792 198.119 166.46 198.119 167.34V171H197.267V167.424C197.267 166.768 197.103 166.268 196.775 165.924C196.447 165.58 195.979 165.408 195.371 165.408C194.691 165.408 194.151 165.612 193.751 166.02C193.359 166.42 193.163 166.976 193.163 167.688V171H192.311V164.688H193.127V165.852C193.359 165.468 193.679 165.172 194.087 164.964C194.503 164.748 194.983 164.64 195.527 164.64ZM203.756 170.616C203.596 170.76 203.396 170.872 203.156 170.952C202.924 171.024 202.68 171.06 202.424 171.06C201.832 171.06 201.376 170.9 201.056 170.58C200.736 170.26 200.576 169.808 200.576 169.224V165.408H199.448V164.688H200.576V163.308H201.428V164.688H203.348V165.408H201.428V169.176C201.428 169.552 201.52 169.84 201.704 170.04C201.896 170.232 202.168 170.328 202.52 170.328C202.696 170.328 202.864 170.3 203.024 170.244C203.192 170.188 203.336 170.108 203.456 170.004L203.756 170.616Z" fill="#145D80"/>
  <rect x="256.5" y="106.5" width="91" height="91" rx="5.5" fill="white" stroke="#145D80"/>
  <path d="M273.821 140.6H277.241C278.129 140.6 278.913 140.78 279.593 141.14C280.273 141.492 280.801 141.988 281.177 142.628C281.553 143.26 281.741 143.984 281.741 144.8C281.741 145.616 281.553 146.344 281.177 146.984C280.801 147.616 280.273 148.112 279.593 148.472C278.913 148.824 278.129 149 277.241 149H273.821V140.6ZM277.193 148.232C277.929 148.232 278.573 148.088 279.125 147.8C279.677 147.504 280.105 147.1 280.409 146.588C280.713 146.068 280.865 145.472 280.865 144.8C280.865 144.128 280.713 143.536 280.409 143.024C280.105 142.504 279.677 142.1 279.125 141.812C278.573 141.516 277.929 141.368 277.193 141.368H274.709V148.232H277.193ZM283.555 142.688H284.407V149H283.555V142.688ZM283.987 141.308C283.811 141.308 283.663 141.248 283.543 141.128C283.423 141.008 283.363 140.864 283.363 140.696C283.363 140.536 283.423 140.396 283.543 140.276C283.663 140.156 283.811 140.096 283.987 140.096C284.163 140.096 284.311 140.156 284.431 140.276C284.551 140.388 284.611 140.524 284.611 140.684C284.611 140.86 284.551 141.008 284.431 141.128C284.311 141.248 284.163 141.308 283.987 141.308ZM292.082 142.688L289.274 149H288.398L285.602 142.688H286.49L288.854 148.064L291.242 142.688H292.082ZM298.602 146.108H293.322C293.37 146.764 293.622 147.296 294.078 147.704C294.534 148.104 295.11 148.304 295.806 148.304C296.198 148.304 296.558 148.236 296.886 148.1C297.214 147.956 297.498 147.748 297.738 147.476L298.218 148.028C297.938 148.364 297.586 148.62 297.162 148.796C296.746 148.972 296.286 149.06 295.782 149.06C295.134 149.06 294.558 148.924 294.054 148.652C293.558 148.372 293.17 147.988 292.89 147.5C292.61 147.012 292.47 146.46 292.47 145.844C292.47 145.228 292.602 144.676 292.866 144.188C293.138 143.7 293.506 143.32 293.97 143.048C294.442 142.776 294.97 142.64 295.554 142.64C296.138 142.64 296.662 142.776 297.126 143.048C297.59 143.32 297.954 143.7 298.218 144.188C298.482 144.668 298.614 145.22 298.614 145.844L298.602 146.108ZM295.554 143.372C294.946 143.372 294.434 143.568 294.018 143.96C293.61 144.344 293.378 144.848 293.322 145.472H297.798C297.742 144.848 297.506 144.344 297.09 143.96C296.682 143.568 296.17 143.372 295.554 143.372ZM301.164 143.924C301.364 143.5 301.66 143.18 302.052 142.964C302.452 142.748 302.944 142.64 303.528 142.64V143.468L303.324 143.456C302.66 143.456 302.14 143.66 301.764 144.068C301.388 144.476 301.2 145.048 301.2 145.784V149H300.348V142.688H301.164V143.924ZM306.81 149.06C306.298 149.06 305.806 148.988 305.334 148.844C304.87 148.692 304.506 148.504 304.242 148.28L304.626 147.608C304.89 147.816 305.222 147.988 305.622 148.124C306.022 148.252 306.438 148.316 306.87 148.316C307.446 148.316 307.87 148.228 308.142 148.052C308.422 147.868 308.562 147.612 308.562 147.284C308.562 147.052 308.486 146.872 308.334 146.744C308.182 146.608 307.99 146.508 307.758 146.444C307.526 146.372 307.218 146.304 306.834 146.24C306.322 146.144 305.91 146.048 305.598 145.952C305.286 145.848 305.018 145.676 304.794 145.436C304.578 145.196 304.47 144.864 304.47 144.44C304.47 143.912 304.69 143.48 305.13 143.144C305.57 142.808 306.182 142.64 306.966 142.64C307.374 142.64 307.782 142.696 308.19 142.808C308.598 142.912 308.934 143.052 309.198 143.228L308.826 143.912C308.306 143.552 307.686 143.372 306.966 143.372C306.422 143.372 306.01 143.468 305.73 143.66C305.458 143.852 305.322 144.104 305.322 144.416C305.322 144.656 305.398 144.848 305.55 144.992C305.71 145.136 305.906 145.244 306.138 145.316C306.37 145.38 306.69 145.448 307.098 145.52C307.602 145.616 308.006 145.712 308.31 145.808C308.614 145.904 308.874 146.068 309.09 146.3C309.306 146.532 309.414 146.852 309.414 147.26C309.414 147.812 309.182 148.252 308.718 148.58C308.262 148.9 307.626 149.06 306.81 149.06ZM310.989 142.688H311.841V149H310.989V142.688ZM311.421 141.308C311.245 141.308 311.097 141.248 310.977 141.128C310.857 141.008 310.797 140.864 310.797 140.696C310.797 140.536 310.857 140.396 310.977 140.276C311.097 140.156 311.245 140.096 311.421 140.096C311.597 140.096 311.745 140.156 311.865 140.276C311.985 140.388 312.045 140.524 312.045 140.684C312.045 140.86 311.985 141.008 311.865 141.128C311.745 141.248 311.597 141.308 311.421 141.308ZM316.299 140.756C315.931 140.756 315.651 140.856 315.459 141.056C315.275 141.256 315.183 141.552 315.183 141.944V142.688H317.127V143.408H315.207V149H314.355V143.408H313.227V142.688H314.355V141.908C314.355 141.332 314.519 140.876 314.847 140.54C315.183 140.204 315.655 140.036 316.263 140.036C316.503 140.036 316.735 140.072 316.959 140.144C317.183 140.208 317.371 140.304 317.523 140.432L317.235 141.068C316.987 140.86 316.675 140.756 316.299 140.756ZM319.239 142.688H320.091V149H319.239V142.688ZM319.671 141.308C319.495 141.308 319.347 141.248 319.227 141.128C319.107 141.008 319.047 140.864 319.047 140.696C319.047 140.536 319.107 140.396 319.227 140.276C319.347 140.156 319.495 140.096 319.671 140.096C319.847 140.096 319.995 140.156 320.115 140.276C320.235 140.388 320.295 140.524 320.295 140.684C320.295 140.86 320.235 141.008 320.115 141.128C319.995 141.248 319.847 141.308 319.671 141.308ZM325.089 149.06C324.465 149.06 323.905 148.924 323.409 148.652C322.921 148.38 322.537 148 322.257 147.512C321.977 147.016 321.837 146.46 321.837 145.844C321.837 145.228 321.977 144.676 322.257 144.188C322.537 143.7 322.921 143.32 323.409 143.048C323.905 142.776 324.465 142.64 325.089 142.64C325.633 142.64 326.117 142.748 326.541 142.964C326.973 143.172 327.313 143.48 327.561 143.888L326.925 144.32C326.717 144.008 326.453 143.776 326.133 143.624C325.813 143.464 325.465 143.384 325.089 143.384C324.633 143.384 324.221 143.488 323.853 143.696C323.493 143.896 323.209 144.184 323.001 144.56C322.801 144.936 322.701 145.364 322.701 145.844C322.701 146.332 322.801 146.764 323.001 147.14C323.209 147.508 323.493 147.796 323.853 148.004C324.221 148.204 324.633 148.304 325.089 148.304C325.465 148.304 325.813 148.228 326.133 148.076C326.453 147.924 326.717 147.692 326.925 147.38L327.561 147.812C327.313 148.22 326.973 148.532 326.541 148.748C326.109 148.956 325.625 149.06 325.089 149.06ZM328.685 145.376H331.829V146.12H328.685V145.376ZM290.486 157.64C291.31 157.64 291.942 157.848 292.382 158.264C292.822 158.672 293.042 159.28 293.042 160.088V164H292.226V163.016C292.034 163.344 291.75 163.6 291.374 163.784C291.006 163.968 290.566 164.06 290.054 164.06C289.35 164.06 288.79 163.892 288.374 163.556C287.958 163.22 287.75 162.776 287.75 162.224C287.75 161.688 287.942 161.256 288.326 160.928C288.718 160.6 289.338 160.436 290.186 160.436H292.19V160.052C292.19 159.508 292.038 159.096 291.734 158.816C291.43 158.528 290.986 158.384 290.402 158.384C290.002 158.384 289.618 158.452 289.25 158.588C288.882 158.716 288.566 158.896 288.302 159.128L287.918 158.492C288.238 158.22 288.622 158.012 289.07 157.868C289.518 157.716 289.99 157.64 290.486 157.64ZM290.186 163.388C290.666 163.388 291.078 163.28 291.422 163.064C291.766 162.84 292.022 162.52 292.19 162.104V161.072H290.21C289.13 161.072 288.59 161.448 288.59 162.2C288.59 162.568 288.73 162.86 289.01 163.076C289.29 163.284 289.682 163.388 290.186 163.388ZM298.68 163.616C298.52 163.76 298.32 163.872 298.08 163.952C297.848 164.024 297.604 164.06 297.348 164.06C296.756 164.06 296.3 163.9 295.98 163.58C295.66 163.26 295.5 162.808 295.5 162.224V158.408H294.372V157.688H295.5V156.308H296.352V157.688H298.272V158.408H296.352V162.176C296.352 162.552 296.444 162.84 296.628 163.04C296.82 163.232 297.092 163.328 297.444 163.328C297.62 163.328 297.788 163.3 297.948 163.244C298.116 163.188 298.26 163.108 298.38 163.004L298.68 163.616ZM300.231 157.688H301.083V164H300.231V157.688ZM300.663 156.308C300.487 156.308 300.339 156.248 300.219 156.128C300.099 156.008 300.039 155.864 300.039 155.696C300.039 155.536 300.099 155.396 300.219 155.276C300.339 155.156 300.487 155.096 300.663 155.096C300.839 155.096 300.987 155.156 301.107 155.276C301.227 155.388 301.287 155.524 301.287 155.684C301.287 155.86 301.227 156.008 301.107 156.128C300.987 156.248 300.839 156.308 300.663 156.308ZM306.034 164.06C305.426 164.06 304.878 163.924 304.39 163.652C303.902 163.372 303.518 162.988 303.238 162.5C302.958 162.012 302.818 161.46 302.818 160.844C302.818 160.228 302.958 159.676 303.238 159.188C303.518 158.7 303.902 158.32 304.39 158.048C304.878 157.776 305.426 157.64 306.034 157.64C306.642 157.64 307.19 157.776 307.678 158.048C308.166 158.32 308.546 158.7 308.818 159.188C309.098 159.676 309.238 160.228 309.238 160.844C309.238 161.46 309.098 162.012 308.818 162.5C308.546 162.988 308.166 163.372 307.678 163.652C307.19 163.924 306.642 164.06 306.034 164.06ZM306.034 163.304C306.482 163.304 306.882 163.204 307.234 163.004C307.594 162.796 307.874 162.504 308.074 162.128C308.274 161.752 308.374 161.324 308.374 160.844C308.374 160.364 308.274 159.936 308.074 159.56C307.874 159.184 307.594 158.896 307.234 158.696C306.882 158.488 306.482 158.384 306.034 158.384C305.586 158.384 305.182 158.488 304.822 158.696C304.47 158.896 304.19 159.184 303.982 159.56C303.782 159.936 303.682 160.364 303.682 160.844C303.682 161.324 303.782 161.752 303.982 162.128C304.19 162.504 304.47 162.796 304.822 163.004C305.182 163.204 305.586 163.304 306.034 163.304ZM314.193 157.64C314.985 157.64 315.613 157.872 316.077 158.336C316.549 158.792 316.785 159.46 316.785 160.34V164H315.933V160.424C315.933 159.768 315.769 159.268 315.441 158.924C315.113 158.58 314.645 158.408 314.037 158.408C313.357 158.408 312.817 158.612 312.417 159.02C312.025 159.42 311.829 159.976 311.829 160.688V164H310.977V157.688H311.793V158.852C312.025 158.468 312.345 158.172 312.753 157.964C313.169 157.748 313.649 157.64 314.193 157.64Z" fill="#145D80"/>
  <rect x="148.5" y="214.5" width="91" height="91" rx="5.5" fill="white" stroke="#145D80"/>
  <path d="M182.428 240.6V249H181.576V242.28L178.276 247.932H177.856L174.556 242.316V249H173.704V240.6H174.436L178.084 246.828L181.696 240.6H182.428ZM187.193 242.64C188.017 242.64 188.649 242.848 189.089 243.264C189.529 243.672 189.749 244.28 189.749 245.088V249H188.933V248.016C188.741 248.344 188.457 248.6 188.081 248.784C187.713 248.968 187.273 249.06 186.761 249.06C186.057 249.06 185.497 248.892 185.081 248.556C184.665 248.22 184.457 247.776 184.457 247.224C184.457 246.688 184.649 246.256 185.033 245.928C185.425 245.6 186.045 245.436 186.893 245.436H188.897V245.052C188.897 244.508 188.745 244.096 188.441 243.816C188.137 243.528 187.693 243.384 187.109 243.384C186.709 243.384 186.325 243.452 185.957 243.588C185.589 243.716 185.273 243.896 185.009 244.128L184.625 243.492C184.945 243.22 185.329 243.012 185.777 242.868C186.225 242.716 186.697 242.64 187.193 242.64ZM186.893 248.388C187.373 248.388 187.785 248.28 188.129 248.064C188.473 247.84 188.729 247.52 188.897 247.104V246.072H186.917C185.837 246.072 185.297 246.448 185.297 247.2C185.297 247.568 185.437 247.86 185.717 248.076C185.997 248.284 186.389 248.388 186.893 248.388ZM192.879 243.924C193.079 243.5 193.375 243.18 193.767 242.964C194.167 242.748 194.659 242.64 195.243 242.64V243.468L195.039 243.456C194.375 243.456 193.855 243.66 193.479 244.068C193.103 244.476 192.915 245.048 192.915 245.784V249H192.063V242.688H192.879V243.924ZM199.126 245.832L197.638 247.2V249H196.786V240.096H197.638V246.132L201.406 242.688H202.462L199.762 245.268L202.714 249H201.67L199.126 245.832ZM209.231 246.108H203.951C203.999 246.764 204.251 247.296 204.707 247.704C205.163 248.104 205.739 248.304 206.435 248.304C206.827 248.304 207.187 248.236 207.515 248.1C207.843 247.956 208.127 247.748 208.367 247.476L208.847 248.028C208.567 248.364 208.215 248.62 207.791 248.796C207.375 248.972 206.915 249.06 206.411 249.06C205.763 249.06 205.187 248.924 204.683 248.652C204.187 248.372 203.799 247.988 203.519 247.5C203.239 247.012 203.099 246.46 203.099 245.844C203.099 245.228 203.231 244.676 203.495 244.188C203.767 243.7 204.135 243.32 204.599 243.048C205.071 242.776 205.599 242.64 206.183 242.64C206.767 242.64 207.291 242.776 207.755 243.048C208.219 243.32 208.583 243.7 208.847 244.188C209.111 244.668 209.243 245.22 209.243 245.844L209.231 246.108ZM206.183 243.372C205.575 243.372 205.063 243.568 204.647 243.96C204.239 244.344 204.007 244.848 203.951 245.472H208.427C208.371 244.848 208.135 244.344 207.719 243.96C207.311 243.568 206.799 243.372 206.183 243.372ZM214.301 248.616C214.141 248.76 213.941 248.872 213.701 248.952C213.469 249.024 213.225 249.06 212.969 249.06C212.377 249.06 211.921 248.9 211.601 248.58C211.281 248.26 211.121 247.808 211.121 247.224V243.408H209.993V242.688H211.121V241.308H211.973V242.688H213.893V243.408H211.973V247.176C211.973 247.552 212.065 247.84 212.249 248.04C212.441 248.232 212.713 248.328 213.065 248.328C213.241 248.328 213.409 248.3 213.569 248.244C213.737 248.188 213.881 248.108 214.001 248.004L214.301 248.616ZM167.829 257.64C168.421 257.64 168.957 257.776 169.437 258.048C169.917 258.312 170.293 258.688 170.565 259.176C170.837 259.664 170.973 260.22 170.973 260.844C170.973 261.476 170.837 262.036 170.565 262.524C170.293 263.012 169.917 263.392 169.437 263.664C168.965 263.928 168.429 264.06 167.829 264.06C167.317 264.06 166.853 263.956 166.437 263.748C166.029 263.532 165.693 263.22 165.429 262.812V266.328H164.577V257.688H165.393V258.936C165.649 258.52 165.985 258.2 166.401 257.976C166.825 257.752 167.301 257.64 167.829 257.64ZM167.769 263.304C168.209 263.304 168.609 263.204 168.969 263.004C169.329 262.796 169.609 262.504 169.809 262.128C170.017 261.752 170.121 261.324 170.121 260.844C170.121 260.364 170.017 259.94 169.809 259.572C169.609 259.196 169.329 258.904 168.969 258.696C168.609 258.488 168.209 258.384 167.769 258.384C167.321 258.384 166.917 258.488 166.557 258.696C166.205 258.904 165.925 259.196 165.717 259.572C165.517 259.94 165.417 260.364 165.417 260.844C165.417 261.324 165.517 261.752 165.717 262.128C165.925 262.504 166.205 262.796 166.557 263.004C166.917 263.204 167.321 263.304 167.769 263.304ZM178.205 261.108H172.925C172.973 261.764 173.225 262.296 173.681 262.704C174.137 263.104 174.713 263.304 175.409 263.304C175.801 263.304 176.161 263.236 176.489 263.1C176.817 262.956 177.101 262.748 177.341 262.476L177.821 263.028C177.541 263.364 177.189 263.62 176.765 263.796C176.349 263.972 175.889 264.06 175.385 264.06C174.737 264.06 174.161 263.924 173.657 263.652C173.161 263.372 172.773 262.988 172.493 262.5C172.213 262.012 172.073 261.46 172.073 260.844C172.073 260.228 172.205 259.676 172.469 259.188C172.741 258.7 173.109 258.32 173.573 258.048C174.045 257.776 174.573 257.64 175.157 257.64C175.741 257.64 176.265 257.776 176.729 258.048C177.193 258.32 177.557 258.7 177.821 259.188C178.085 259.668 178.217 260.22 178.217 260.844L178.205 261.108ZM175.157 258.372C174.549 258.372 174.037 258.568 173.621 258.96C173.213 259.344 172.981 259.848 172.925 260.472H177.401C177.345 259.848 177.109 259.344 176.693 258.96C176.285 258.568 175.773 258.372 175.157 258.372ZM183.168 257.64C183.96 257.64 184.588 257.872 185.052 258.336C185.524 258.792 185.76 259.46 185.76 260.34V264H184.908V260.424C184.908 259.768 184.744 259.268 184.416 258.924C184.088 258.58 183.62 258.408 183.012 258.408C182.332 258.408 181.792 258.612 181.392 259.02C181 259.42 180.804 259.976 180.804 260.688V264H179.952V257.688H180.768V258.852C181 258.468 181.32 258.172 181.728 257.964C182.144 257.748 182.624 257.64 183.168 257.64ZM193.592 261.108H188.312C188.36 261.764 188.612 262.296 189.068 262.704C189.524 263.104 190.1 263.304 190.796 263.304C191.188 263.304 191.548 263.236 191.876 263.1C192.204 262.956 192.488 262.748 192.728 262.476L193.208 263.028C192.928 263.364 192.576 263.62 192.152 263.796C191.736 263.972 191.276 264.06 190.772 264.06C190.124 264.06 189.548 263.924 189.044 263.652C188.548 263.372 188.16 262.988 187.88 262.5C187.6 262.012 187.46 261.46 187.46 260.844C187.46 260.228 187.592 259.676 187.856 259.188C188.128 258.7 188.496 258.32 188.96 258.048C189.432 257.776 189.96 257.64 190.544 257.64C191.128 257.64 191.652 257.776 192.116 258.048C192.58 258.32 192.944 258.7 193.208 259.188C193.472 259.668 193.604 260.22 193.604 260.844L193.592 261.108ZM190.544 258.372C189.936 258.372 189.424 258.568 189.008 258.96C188.6 259.344 188.368 259.848 188.312 260.472H192.788C192.732 259.848 192.496 259.344 192.08 258.96C191.672 258.568 191.16 258.372 190.544 258.372ZM198.662 263.616C198.502 263.76 198.302 263.872 198.062 263.952C197.83 264.024 197.586 264.06 197.33 264.06C196.738 264.06 196.282 263.9 195.962 263.58C195.642 263.26 195.482 262.808 195.482 262.224V258.408H194.354V257.688H195.482V256.308H196.334V257.688H198.254V258.408H196.334V262.176C196.334 262.552 196.426 262.84 196.61 263.04C196.802 263.232 197.074 263.328 197.426 263.328C197.602 263.328 197.77 263.3 197.93 263.244C198.098 263.188 198.242 263.108 198.362 263.004L198.662 263.616ZM201.029 258.924C201.229 258.5 201.525 258.18 201.917 257.964C202.317 257.748 202.809 257.64 203.393 257.64V258.468L203.189 258.456C202.525 258.456 202.005 258.66 201.629 259.068C201.253 259.476 201.065 260.048 201.065 260.784V264H200.213V257.688H201.029V258.924ZM207.132 257.64C207.956 257.64 208.588 257.848 209.028 258.264C209.468 258.672 209.688 259.28 209.688 260.088V264H208.872V263.016C208.68 263.344 208.396 263.6 208.02 263.784C207.652 263.968 207.212 264.06 206.7 264.06C205.996 264.06 205.436 263.892 205.02 263.556C204.604 263.22 204.396 262.776 204.396 262.224C204.396 261.688 204.588 261.256 204.972 260.928C205.364 260.6 205.984 260.436 206.832 260.436H208.836V260.052C208.836 259.508 208.684 259.096 208.38 258.816C208.076 258.528 207.632 258.384 207.048 258.384C206.648 258.384 206.264 258.452 205.896 258.588C205.528 258.716 205.212 258.896 204.948 259.128L204.564 258.492C204.884 258.22 205.268 258.012 205.716 257.868C206.164 257.716 206.636 257.64 207.132 257.64ZM206.832 263.388C207.312 263.388 207.724 263.28 208.068 263.064C208.412 262.84 208.668 262.52 208.836 262.104V261.072H206.856C205.776 261.072 205.236 261.448 205.236 262.2C205.236 262.568 205.376 262.86 205.656 263.076C205.936 263.284 206.328 263.388 206.832 263.388ZM215.326 263.616C215.166 263.76 214.966 263.872 214.726 263.952C214.494 264.024 214.25 264.06 213.994 264.06C213.402 264.06 212.946 263.9 212.626 263.58C212.306 263.26 212.146 262.808 212.146 262.224V258.408H211.018V257.688H212.146V256.308H212.998V257.688H214.918V258.408H212.998V262.176C212.998 262.552 213.09 262.84 213.274 263.04C213.466 263.232 213.738 263.328 214.09 263.328C214.266 263.328 214.434 263.3 214.594 263.244C214.762 263.188 214.906 263.108 215.026 263.004L215.326 263.616ZM216.877 257.688H217.729V264H216.877V257.688ZM217.309 256.308C217.133 256.308 216.985 256.248 216.865 256.128C216.745 256.008 216.685 255.864 216.685 255.696C216.685 255.536 216.745 255.396 216.865 255.276C216.985 255.156 217.133 255.096 217.309 255.096C217.485 255.096 217.633 255.156 217.753 255.276C217.873 255.388 217.933 255.524 217.933 255.684C217.933 255.86 217.873 256.008 217.753 256.128C217.633 256.248 217.485 256.308 217.309 256.308ZM219.632 260.376H222.776V261.12H219.632V260.376ZM189.446 279.06C188.838 279.06 188.29 278.924 187.802 278.652C187.314 278.372 186.93 277.988 186.65 277.5C186.37 277.012 186.23 276.46 186.23 275.844C186.23 275.228 186.37 274.676 186.65 274.188C186.93 273.7 187.314 273.32 187.802 273.048C188.29 272.776 188.838 272.64 189.446 272.64C190.054 272.64 190.602 272.776 191.09 273.048C191.578 273.32 191.958 273.7 192.23 274.188C192.51 274.676 192.65 275.228 192.65 275.844C192.65 276.46 192.51 277.012 192.23 277.5C191.958 277.988 191.578 278.372 191.09 278.652C190.602 278.924 190.054 279.06 189.446 279.06ZM189.446 278.304C189.894 278.304 190.294 278.204 190.646 278.004C191.006 277.796 191.286 277.504 191.486 277.128C191.686 276.752 191.786 276.324 191.786 275.844C191.786 275.364 191.686 274.936 191.486 274.56C191.286 274.184 191.006 273.896 190.646 273.696C190.294 273.488 189.894 273.384 189.446 273.384C188.998 273.384 188.594 273.488 188.234 273.696C187.882 273.896 187.602 274.184 187.394 274.56C187.194 274.936 187.094 275.364 187.094 275.844C187.094 276.324 187.194 276.752 187.394 277.128C187.602 277.504 187.882 277.796 188.234 278.004C188.594 278.204 188.998 278.304 189.446 278.304ZM197.605 272.64C198.397 272.64 199.025 272.872 199.489 273.336C199.961 273.792 200.197 274.46 200.197 275.34V279H199.345V275.424C199.345 274.768 199.181 274.268 198.853 273.924C198.525 273.58 198.057 273.408 197.449 273.408C196.769 273.408 196.229 273.612 195.829 274.02C195.437 274.42 195.241 274.976 195.241 275.688V279H194.389V272.688H195.205V273.852C195.437 273.468 195.757 273.172 196.165 272.964C196.581 272.748 197.061 272.64 197.605 272.64Z" fill="#145D80"/>
  <path d="M179.663 323.36V324H174.713V317H179.513V317.64H175.453V320.13H179.073V320.76H175.453V323.36H179.663ZM184.456 324L182.786 321.8L181.106 324H180.306L182.386 321.3L180.406 318.74H181.206L182.786 320.8L184.366 318.74H185.146L183.166 321.3L185.266 324H184.456ZM186.448 318.74H187.158V324H186.448V318.74ZM186.808 317.59C186.661 317.59 186.538 317.54 186.438 317.44C186.338 317.34 186.288 317.22 186.288 317.08C186.288 316.947 186.338 316.83 186.438 316.73C186.538 316.63 186.661 316.58 186.808 316.58C186.955 316.58 187.078 316.63 187.178 316.73C187.278 316.823 187.328 316.937 187.328 317.07C187.328 317.217 187.278 317.34 187.178 317.44C187.078 317.54 186.955 317.59 186.808 317.59ZM190.544 324.05C190.117 324.05 189.707 323.99 189.314 323.87C188.927 323.743 188.624 323.587 188.404 323.4L188.724 322.84C188.944 323.013 189.22 323.157 189.554 323.27C189.887 323.377 190.234 323.43 190.594 323.43C191.074 323.43 191.427 323.357 191.654 323.21C191.887 323.057 192.004 322.843 192.004 322.57C192.004 322.377 191.94 322.227 191.814 322.12C191.687 322.007 191.527 321.923 191.334 321.87C191.14 321.81 190.884 321.753 190.564 321.7C190.137 321.62 189.794 321.54 189.534 321.46C189.274 321.373 189.05 321.23 188.864 321.03C188.684 320.83 188.594 320.553 188.594 320.2C188.594 319.76 188.777 319.4 189.144 319.12C189.51 318.84 190.02 318.7 190.674 318.7C191.014 318.7 191.354 318.747 191.694 318.84C192.034 318.927 192.314 319.043 192.534 319.19L192.224 319.76C191.79 319.46 191.274 319.31 190.674 319.31C190.22 319.31 189.877 319.39 189.644 319.55C189.417 319.71 189.304 319.92 189.304 320.18C189.304 320.38 189.367 320.54 189.494 320.66C189.627 320.78 189.79 320.87 189.984 320.93C190.177 320.983 190.444 321.04 190.784 321.1C191.204 321.18 191.54 321.26 191.794 321.34C192.047 321.42 192.264 321.557 192.444 321.75C192.624 321.943 192.714 322.21 192.714 322.55C192.714 323.01 192.52 323.377 192.134 323.65C191.754 323.917 191.224 324.05 190.544 324.05ZM196.796 323.68C196.663 323.8 196.496 323.893 196.296 323.96C196.103 324.02 195.899 324.05 195.686 324.05C195.193 324.05 194.813 323.917 194.546 323.65C194.279 323.383 194.146 323.007 194.146 322.52V319.34H193.206V318.74H194.146V317.59H194.856V318.74H196.456V319.34H194.856V322.48C194.856 322.793 194.933 323.033 195.086 323.2C195.246 323.36 195.473 323.44 195.766 323.44C195.913 323.44 196.053 323.417 196.186 323.37C196.326 323.323 196.446 323.257 196.546 323.17L196.796 323.68ZM198.089 318.74H198.799V324H198.089V318.74ZM198.449 317.59C198.302 317.59 198.179 317.54 198.079 317.44C197.979 317.34 197.929 317.22 197.929 317.08C197.929 316.947 197.979 316.83 198.079 316.73C198.179 316.63 198.302 316.58 198.449 316.58C198.595 316.58 198.719 316.63 198.819 316.73C198.919 316.823 198.969 316.937 198.969 317.07C198.969 317.217 198.919 317.34 198.819 317.44C198.719 317.54 198.595 317.59 198.449 317.59ZM203.454 318.7C204.114 318.7 204.638 318.893 205.024 319.28C205.418 319.66 205.614 320.217 205.614 320.95V324H204.904V321.02C204.904 320.473 204.768 320.057 204.494 319.77C204.221 319.483 203.831 319.34 203.324 319.34C202.758 319.34 202.308 319.51 201.974 319.85C201.648 320.183 201.484 320.647 201.484 321.24V324H200.774V318.74H201.454V319.71C201.648 319.39 201.914 319.143 202.254 318.97C202.601 318.79 203.001 318.7 203.454 318.7ZM212.431 318.74V323.36C212.431 324.253 212.211 324.913 211.771 325.34C211.338 325.773 210.681 325.99 209.801 325.99C209.315 325.99 208.851 325.917 208.411 325.77C207.978 325.63 207.625 325.433 207.351 325.18L207.711 324.64C207.965 324.867 208.271 325.043 208.631 325.17C208.998 325.297 209.381 325.36 209.781 325.36C210.448 325.36 210.938 325.203 211.251 324.89C211.565 324.583 211.721 324.103 211.721 323.45V322.78C211.501 323.113 211.211 323.367 210.851 323.54C210.498 323.713 210.105 323.8 209.671 323.8C209.178 323.8 208.728 323.693 208.321 323.48C207.921 323.26 207.605 322.957 207.371 322.57C207.145 322.177 207.031 321.733 207.031 321.24C207.031 320.747 207.145 320.307 207.371 319.92C207.605 319.533 207.921 319.233 208.321 319.02C208.721 318.807 209.171 318.7 209.671 318.7C210.118 318.7 210.521 318.79 210.881 318.97C211.241 319.15 211.531 319.41 211.751 319.75V318.74H212.431ZM209.741 323.17C210.121 323.17 210.465 323.09 210.771 322.93C211.078 322.763 211.315 322.533 211.481 322.24C211.655 321.947 211.741 321.613 211.741 321.24C211.741 320.867 211.655 320.537 211.481 320.25C211.315 319.957 211.078 319.73 210.771 319.57C210.471 319.403 210.128 319.32 209.741 319.32C209.361 319.32 209.018 319.4 208.711 319.56C208.411 319.72 208.175 319.947 208.001 320.24C207.835 320.533 207.751 320.867 207.751 321.24C207.751 321.613 207.835 321.947 208.001 322.24C208.175 322.533 208.411 322.763 208.711 322.93C209.018 323.09 209.361 323.17 209.741 323.17Z" fill="#145D80"/>
  <path d="M297.059 317V324H296.449L291.949 318.32V324H291.209V317H291.819L296.329 322.68V317H297.059ZM303.774 321.59H299.374C299.414 322.137 299.624 322.58 300.004 322.92C300.384 323.253 300.864 323.42 301.444 323.42C301.771 323.42 302.071 323.363 302.344 323.25C302.617 323.13 302.854 322.957 303.054 322.73L303.454 323.19C303.221 323.47 302.927 323.683 302.574 323.83C302.227 323.977 301.844 324.05 301.424 324.05C300.884 324.05 300.404 323.937 299.984 323.71C299.571 323.477 299.247 323.157 299.014 322.75C298.781 322.343 298.664 321.883 298.664 321.37C298.664 320.857 298.774 320.397 298.994 319.99C299.221 319.583 299.527 319.267 299.914 319.04C300.307 318.813 300.747 318.7 301.234 318.7C301.721 318.7 302.157 318.813 302.544 319.04C302.931 319.267 303.234 319.583 303.454 319.99C303.674 320.39 303.784 320.85 303.784 321.37L303.774 321.59ZM301.234 319.31C300.727 319.31 300.301 319.473 299.954 319.8C299.614 320.12 299.421 320.54 299.374 321.06H303.104C303.057 320.54 302.861 320.12 302.514 319.8C302.174 319.473 301.747 319.31 301.234 319.31ZM312.852 318.74L310.862 324H310.192L308.532 319.69L306.872 324H306.202L304.222 318.74H304.902L306.552 323.21L308.242 318.74H308.852L310.532 323.21L312.202 318.74H312.852Z" fill="#145D80"/>
  <path d="M198.91 337.6C199.982 337.6 200.822 337.856 201.43 338.368C202.038 338.88 202.342 339.584 202.342 340.48C202.342 341.376 202.038 342.08 201.43 342.592C200.822 343.096 199.982 343.348 198.91 343.348H196.654V346H195.766V337.6H198.91ZM198.886 342.568C199.718 342.568 200.354 342.388 200.794 342.028C201.234 341.66 201.454 341.144 201.454 340.48C201.454 339.8 201.234 339.28 200.794 338.92C200.354 338.552 199.718 338.368 198.886 338.368H196.654V342.568H198.886ZM204.734 340.924C204.934 340.5 205.23 340.18 205.622 339.964C206.022 339.748 206.514 339.64 207.098 339.64V340.468L206.894 340.456C206.23 340.456 205.71 340.66 205.334 341.068C204.958 341.476 204.77 342.048 204.77 342.784V346H203.918V339.688H204.734V340.924ZM211.163 346.06C210.555 346.06 210.007 345.924 209.519 345.652C209.031 345.372 208.647 344.988 208.367 344.5C208.087 344.012 207.947 343.46 207.947 342.844C207.947 342.228 208.087 341.676 208.367 341.188C208.647 340.7 209.031 340.32 209.519 340.048C210.007 339.776 210.555 339.64 211.163 339.64C211.771 339.64 212.319 339.776 212.807 340.048C213.295 340.32 213.675 340.7 213.947 341.188C214.227 341.676 214.367 342.228 214.367 342.844C214.367 343.46 214.227 344.012 213.947 344.5C213.675 344.988 213.295 345.372 212.807 345.652C212.319 345.924 211.771 346.06 211.163 346.06ZM211.163 345.304C211.611 345.304 212.011 345.204 212.363 345.004C212.723 344.796 213.003 344.504 213.203 344.128C213.403 343.752 213.503 343.324 213.503 342.844C213.503 342.364 213.403 341.936 213.203 341.56C213.003 341.184 212.723 340.896 212.363 340.696C212.011 340.488 211.611 340.384 211.163 340.384C210.715 340.384 210.311 340.488 209.951 340.696C209.599 340.896 209.319 341.184 209.111 341.56C208.911 341.936 208.811 342.364 208.811 342.844C208.811 343.324 208.911 343.752 209.111 344.128C209.319 344.504 209.599 344.796 209.951 345.004C210.311 345.204 210.715 345.304 211.163 345.304ZM221.866 337.096V346H221.05V344.752C220.794 345.176 220.454 345.5 220.03 345.724C219.614 345.948 219.142 346.06 218.614 346.06C218.022 346.06 217.486 345.924 217.006 345.652C216.526 345.38 216.15 345 215.878 344.512C215.606 344.024 215.47 343.468 215.47 342.844C215.47 342.22 215.606 341.664 215.878 341.176C216.15 340.688 216.526 340.312 217.006 340.048C217.486 339.776 218.022 339.64 218.614 339.64C219.126 339.64 219.586 339.748 219.994 339.964C220.41 340.172 220.75 340.48 221.014 340.888V337.096H221.866ZM218.686 345.304C219.126 345.304 219.522 345.204 219.874 345.004C220.234 344.796 220.514 344.504 220.714 344.128C220.922 343.752 221.026 343.324 221.026 342.844C221.026 342.364 220.922 341.936 220.714 341.56C220.514 341.184 220.234 340.896 219.874 340.696C219.522 340.488 219.126 340.384 218.686 340.384C218.238 340.384 217.834 340.488 217.474 340.696C217.122 340.896 216.842 341.184 216.634 341.56C216.434 341.936 216.334 342.364 216.334 342.844C216.334 343.324 216.434 343.752 216.634 344.128C216.842 344.504 217.122 344.796 217.474 345.004C217.834 345.204 218.238 345.304 218.686 345.304ZM229.927 339.688V346H229.111V344.848C228.887 345.232 228.579 345.532 228.187 345.748C227.795 345.956 227.347 346.06 226.843 346.06C226.019 346.06 225.367 345.832 224.887 345.376C224.415 344.912 224.179 344.236 224.179 343.348V339.688H225.031V343.264C225.031 343.928 225.195 344.432 225.523 344.776C225.851 345.12 226.319 345.292 226.927 345.292C227.591 345.292 228.115 345.092 228.499 344.692C228.883 344.284 229.075 343.72 229.075 343V339.688H229.927ZM234.929 346.06C234.305 346.06 233.745 345.924 233.249 345.652C232.761 345.38 232.377 345 232.097 344.512C231.817 344.016 231.677 343.46 231.677 342.844C231.677 342.228 231.817 341.676 232.097 341.188C232.377 340.7 232.761 340.32 233.249 340.048C233.745 339.776 234.305 339.64 234.929 339.64C235.473 339.64 235.957 339.748 236.381 339.964C236.813 340.172 237.153 340.48 237.401 340.888L236.765 341.32C236.557 341.008 236.293 340.776 235.973 340.624C235.653 340.464 235.305 340.384 234.929 340.384C234.473 340.384 234.061 340.488 233.693 340.696C233.333 340.896 233.049 341.184 232.841 341.56C232.641 341.936 232.541 342.364 232.541 342.844C232.541 343.332 232.641 343.764 232.841 344.14C233.049 344.508 233.333 344.796 233.693 345.004C234.061 345.204 234.473 345.304 234.929 345.304C235.305 345.304 235.653 345.228 235.973 345.076C236.293 344.924 236.557 344.692 236.765 344.38L237.401 344.812C237.153 345.22 236.813 345.532 236.381 345.748C235.949 345.956 235.465 346.06 234.929 346.06ZM242.469 345.616C242.309 345.76 242.109 345.872 241.869 345.952C241.637 346.024 241.393 346.06 241.137 346.06C240.545 346.06 240.089 345.9 239.769 345.58C239.449 345.26 239.289 344.808 239.289 344.224V340.408H238.161V339.688H239.289V338.308H240.141V339.688H242.061V340.408H240.141V344.176C240.141 344.552 240.233 344.84 240.417 345.04C240.609 345.232 240.881 345.328 241.233 345.328C241.409 345.328 241.577 345.3 241.737 345.244C241.905 345.188 242.049 345.108 242.169 345.004L242.469 345.616ZM245.712 346.06C245.2 346.06 244.708 345.988 244.236 345.844C243.772 345.692 243.408 345.504 243.144 345.28L243.528 344.608C243.792 344.816 244.124 344.988 244.524 345.124C244.924 345.252 245.34 345.316 245.772 345.316C246.348 345.316 246.772 345.228 247.044 345.052C247.324 344.868 247.464 344.612 247.464 344.284C247.464 344.052 247.388 343.872 247.236 343.744C247.084 343.608 246.892 343.508 246.66 343.444C246.428 343.372 246.12 343.304 245.736 343.24C245.224 343.144 244.812 343.048 244.5 342.952C244.188 342.848 243.92 342.676 243.696 342.436C243.48 342.196 243.372 341.864 243.372 341.44C243.372 340.912 243.592 340.48 244.032 340.144C244.472 339.808 245.084 339.64 245.868 339.64C246.276 339.64 246.684 339.696 247.092 339.808C247.5 339.912 247.836 340.052 248.1 340.228L247.728 340.912C247.208 340.552 246.588 340.372 245.868 340.372C245.324 340.372 244.912 340.468 244.632 340.66C244.36 340.852 244.224 341.104 244.224 341.416C244.224 341.656 244.3 341.848 244.452 341.992C244.612 342.136 244.808 342.244 245.04 342.316C245.272 342.38 245.592 342.448 246 342.52C246.504 342.616 246.908 342.712 247.212 342.808C247.516 342.904 247.776 343.068 247.992 343.3C248.208 343.532 248.316 343.852 248.316 344.26C248.316 344.812 248.084 345.252 247.62 345.58C247.164 345.9 246.528 346.06 245.712 346.06ZM252.363 335.896H253.143L249.183 347.2H248.403L252.363 335.896ZM256.172 346.072C255.548 346.072 254.948 345.972 254.372 345.772C253.804 345.572 253.364 345.308 253.052 344.98L253.4 344.296C253.704 344.6 254.108 344.848 254.612 345.04C255.116 345.224 255.636 345.316 256.172 345.316C256.924 345.316 257.488 345.18 257.864 344.908C258.24 344.628 258.428 344.268 258.428 343.828C258.428 343.492 258.324 343.224 258.116 343.024C257.916 342.824 257.668 342.672 257.372 342.568C257.076 342.456 256.664 342.336 256.136 342.208C255.504 342.048 255 341.896 254.624 341.752C254.248 341.6 253.924 341.372 253.652 341.068C253.388 340.764 253.256 340.352 253.256 339.832C253.256 339.408 253.368 339.024 253.592 338.68C253.816 338.328 254.16 338.048 254.624 337.84C255.088 337.632 255.664 337.528 256.352 337.528C256.832 337.528 257.3 337.596 257.756 337.732C258.22 337.86 258.62 338.04 258.956 338.272L258.656 338.98C258.304 338.748 257.928 338.576 257.528 338.464C257.128 338.344 256.736 338.284 256.352 338.284C255.616 338.284 255.06 338.428 254.684 338.716C254.316 338.996 254.132 339.36 254.132 339.808C254.132 340.144 254.232 340.416 254.432 340.624C254.64 340.824 254.896 340.98 255.2 341.092C255.512 341.196 255.928 341.312 256.448 341.44C257.064 341.592 257.56 341.744 257.936 341.896C258.32 342.04 258.644 342.264 258.908 342.568C259.172 342.864 259.304 343.268 259.304 343.78C259.304 344.204 259.188 344.592 258.956 344.944C258.732 345.288 258.384 345.564 257.912 345.772C257.44 345.972 256.86 346.072 256.172 346.072ZM266.555 343.108H261.275C261.323 343.764 261.575 344.296 262.031 344.704C262.487 345.104 263.063 345.304 263.759 345.304C264.151 345.304 264.511 345.236 264.839 345.1C265.167 344.956 265.451 344.748 265.691 344.476L266.171 345.028C265.891 345.364 265.539 345.62 265.115 345.796C264.699 345.972 264.239 346.06 263.735 346.06C263.087 346.06 262.511 345.924 262.007 345.652C261.511 345.372 261.123 344.988 260.843 344.5C260.563 344.012 260.423 343.46 260.423 342.844C260.423 342.228 260.555 341.676 260.819 341.188C261.091 340.7 261.459 340.32 261.923 340.048C262.395 339.776 262.923 339.64 263.507 339.64C264.091 339.64 264.615 339.776 265.079 340.048C265.543 340.32 265.907 340.7 266.171 341.188C266.435 341.668 266.567 342.22 266.567 342.844L266.555 343.108ZM263.507 340.372C262.899 340.372 262.387 340.568 261.971 340.96C261.563 341.344 261.331 341.848 261.275 342.472H265.751C265.695 341.848 265.459 341.344 265.043 340.96C264.635 340.568 264.123 340.372 263.507 340.372ZM269.117 340.924C269.317 340.5 269.613 340.18 270.005 339.964C270.405 339.748 270.897 339.64 271.481 339.64V340.468L271.277 340.456C270.613 340.456 270.093 340.66 269.717 341.068C269.341 341.476 269.153 342.048 269.153 342.784V346H268.301V339.688H269.117V340.924ZM278.597 339.688L275.789 346H274.913L272.117 339.688H273.005L275.369 345.064L277.757 339.688H278.597ZM279.797 339.688H280.649V346H279.797V339.688ZM280.229 338.308C280.053 338.308 279.905 338.248 279.785 338.128C279.665 338.008 279.605 337.864 279.605 337.696C279.605 337.536 279.665 337.396 279.785 337.276C279.905 337.156 280.053 337.096 280.229 337.096C280.405 337.096 280.553 337.156 280.673 337.276C280.793 337.388 280.853 337.524 280.853 337.684C280.853 337.86 280.793 338.008 280.673 338.128C280.553 338.248 280.405 338.308 280.229 338.308ZM285.636 346.06C285.012 346.06 284.452 345.924 283.956 345.652C283.468 345.38 283.084 345 282.804 344.512C282.524 344.016 282.384 343.46 282.384 342.844C282.384 342.228 282.524 341.676 282.804 341.188C283.084 340.7 283.468 340.32 283.956 340.048C284.452 339.776 285.012 339.64 285.636 339.64C286.18 339.64 286.664 339.748 287.088 339.964C287.52 340.172 287.86 340.48 288.108 340.888L287.472 341.32C287.264 341.008 287 340.776 286.68 340.624C286.36 340.464 286.012 340.384 285.636 340.384C285.18 340.384 284.768 340.488 284.4 340.696C284.04 340.896 283.756 341.184 283.548 341.56C283.348 341.936 283.248 342.364 283.248 342.844C283.248 343.332 283.348 343.764 283.548 344.14C283.756 344.508 284.04 344.796 284.4 345.004C284.768 345.204 285.18 345.304 285.636 345.304C286.012 345.304 286.36 345.228 286.68 345.076C287 344.924 287.264 344.692 287.472 344.38L288.108 344.812C287.86 345.22 287.52 345.532 287.088 345.748C286.656 345.956 286.172 346.06 285.636 346.06ZM295.172 343.108H289.892C289.94 343.764 290.192 344.296 290.648 344.704C291.104 345.104 291.68 345.304 292.376 345.304C292.768 345.304 293.128 345.236 293.456 345.1C293.784 344.956 294.068 344.748 294.308 344.476L294.788 345.028C294.508 345.364 294.156 345.62 293.732 345.796C293.316 345.972 292.856 346.06 292.352 346.06C291.704 346.06 291.128 345.924 290.624 345.652C290.128 345.372 289.74 344.988 289.46 344.5C289.18 344.012 289.04 343.46 289.04 342.844C289.04 342.228 289.172 341.676 289.436 341.188C289.708 340.7 290.076 340.32 290.54 340.048C291.012 339.776 291.54 339.64 292.124 339.64C292.708 339.64 293.232 339.776 293.696 340.048C294.16 340.32 294.524 340.7 294.788 341.188C295.052 341.668 295.184 342.22 295.184 342.844L295.172 343.108ZM292.124 340.372C291.516 340.372 291.004 340.568 290.588 340.96C290.18 341.344 289.948 341.848 289.892 342.472H294.368C294.312 341.848 294.076 341.344 293.66 340.96C293.252 340.568 292.74 340.372 292.124 340.372ZM298.61 346.06C298.098 346.06 297.606 345.988 297.134 345.844C296.67 345.692 296.306 345.504 296.042 345.28L296.426 344.608C296.69 344.816 297.022 344.988 297.422 345.124C297.822 345.252 298.238 345.316 298.67 345.316C299.246 345.316 299.67 345.228 299.942 345.052C300.222 344.868 300.362 344.612 300.362 344.284C300.362 344.052 300.286 343.872 300.134 343.744C299.982 343.608 299.79 343.508 299.558 343.444C299.326 343.372 299.018 343.304 298.634 343.24C298.122 343.144 297.71 343.048 297.398 342.952C297.086 342.848 296.818 342.676 296.594 342.436C296.378 342.196 296.27 341.864 296.27 341.44C296.27 340.912 296.49 340.48 296.93 340.144C297.37 339.808 297.982 339.64 298.766 339.64C299.174 339.64 299.582 339.696 299.99 339.808C300.398 339.912 300.734 340.052 300.998 340.228L300.626 340.912C300.106 340.552 299.486 340.372 298.766 340.372C298.222 340.372 297.81 340.468 297.53 340.66C297.258 340.852 297.122 341.104 297.122 341.416C297.122 341.656 297.198 341.848 297.35 341.992C297.51 342.136 297.706 342.244 297.938 342.316C298.17 342.38 298.49 342.448 298.898 342.52C299.402 342.616 299.806 342.712 300.11 342.808C300.414 342.904 300.674 343.068 300.89 343.3C301.106 343.532 301.214 343.852 301.214 344.26C301.214 344.812 300.982 345.252 300.518 345.58C300.062 345.9 299.426 346.06 298.61 346.06Z" fill="#145D80"/>
  <path d="M108.6 217.072L117 217.072L117 217.924L110.28 217.924L115.932 221.224L115.932 221.644L110.316 224.944L117 224.944L117 225.796L108.6 225.796L108.6 225.064L114.828 221.416L108.6 217.804L108.6 217.072ZM110.64 212.307C110.64 211.483 110.848 210.851 111.264 210.411C111.672 209.971 112.28 209.751 113.088 209.751L117 209.751L117 210.567L116.016 210.567C116.344 210.759 116.6 211.043 116.784 211.419C116.968 211.787 117.06 212.227 117.06 212.739C117.06 213.443 116.892 214.003 116.556 214.419C116.22 214.835 115.776 215.043 115.224 215.043C114.688 215.043 114.256 214.851 113.928 214.467C113.6 214.075 113.436 213.455 113.436 212.607L113.436 210.603L113.052 210.603C112.508 210.603 112.096 210.755 111.816 211.059C111.528 211.363 111.384 211.807 111.384 212.391C111.384 212.791 111.452 213.175 111.588 213.543C111.716 213.911 111.896 214.227 112.128 214.491L111.492 214.875C111.22 214.555 111.012 214.171 110.868 213.723C110.716 213.275 110.64 212.803 110.64 212.307ZM116.388 212.607C116.388 212.127 116.28 211.715 116.064 211.371C115.84 211.027 115.52 210.771 115.104 210.603L114.072 210.603L114.072 212.583C114.072 213.663 114.448 214.203 115.2 214.203C115.568 214.203 115.86 214.063 116.076 213.783C116.284 213.503 116.388 213.111 116.388 212.607ZM111.924 206.621C111.5 206.421 111.18 206.125 110.964 205.733C110.748 205.333 110.64 204.841 110.64 204.257L111.468 204.257L111.456 204.461C111.456 205.125 111.66 205.645 112.068 206.021C112.476 206.397 113.048 206.585 113.784 206.585L117 206.585L117 207.437L110.688 207.437L110.688 206.621L111.924 206.621ZM113.832 200.374L115.2 201.862L117 201.862L117 202.714L108.096 202.714L108.096 201.862L114.132 201.862L110.688 198.094L110.688 197.038L113.268 199.738L117 196.786L117 197.83L113.832 200.374ZM114.108 190.269L114.108 195.549C114.764 195.501 115.296 195.249 115.704 194.793C116.104 194.337 116.304 193.761 116.304 193.065C116.304 192.673 116.236 192.313 116.1 191.985C115.956 191.657 115.748 191.373 115.476 191.133L116.028 190.653C116.364 190.933 116.62 191.285 116.796 191.709C116.972 192.125 117.06 192.585 117.06 193.089C117.06 193.737 116.924 194.313 116.652 194.817C116.372 195.313 115.988 195.701 115.5 195.981C115.012 196.261 114.46 196.401 113.844 196.401C113.228 196.401 112.676 196.269 112.188 196.005C111.7 195.733 111.32 195.365 111.048 194.901C110.776 194.429 110.64 193.901 110.64 193.317C110.64 192.733 110.776 192.209 111.048 191.745C111.32 191.281 111.7 190.917 112.188 190.653C112.668 190.389 113.22 190.257 113.844 190.257L114.108 190.269ZM111.372 193.317C111.372 193.925 111.568 194.437 111.96 194.853C112.344 195.261 112.848 195.493 113.472 195.549L113.472 191.073C112.848 191.129 112.344 191.365 111.96 191.781C111.568 192.189 111.372 192.701 111.372 193.317ZM116.616 185.199C116.76 185.359 116.872 185.559 116.952 185.799C117.024 186.031 117.06 186.275 117.06 186.531C117.06 187.123 116.9 187.579 116.58 187.899C116.26 188.219 115.808 188.379 115.224 188.379L111.408 188.379L111.408 189.507L110.688 189.507L110.688 188.379L109.308 188.379L109.308 187.527L110.688 187.527L110.688 185.607L111.408 185.607L111.408 187.527L115.176 187.527C115.552 187.527 115.84 187.435 116.04 187.251C116.232 187.059 116.328 186.787 116.328 186.435C116.328 186.259 116.3 186.091 116.244 185.931C116.188 185.763 116.108 185.619 116.004 185.499L116.616 185.199Z" fill="#145D80"/>
  <path d="M137.36 274.337L138 274.337L138 279.287L131 279.287L131 274.487L131.64 274.487L131.64 278.547L134.13 278.547L134.13 274.927L134.76 274.927L134.76 278.547L137.36 278.547L137.36 274.337ZM138 269.544L135.8 271.214L138 272.894L138 273.694L135.3 271.614L132.74 273.594L132.74 272.794L134.8 271.214L132.74 269.634L132.74 268.854L135.3 270.834L138 268.734L138 269.544ZM132.74 267.552L132.74 266.842L138 266.842L138 267.552L132.74 267.552ZM131.59 267.192C131.59 267.339 131.54 267.462 131.44 267.562C131.34 267.662 131.22 267.712 131.08 267.712C130.947 267.712 130.83 267.662 130.73 267.562C130.63 267.462 130.58 267.339 130.58 267.192C130.58 267.045 130.63 266.922 130.73 266.822C130.823 266.722 130.937 266.672 131.07 266.672C131.217 266.672 131.34 266.722 131.44 266.822C131.54 266.922 131.59 267.045 131.59 267.192ZM138.05 263.456C138.05 263.883 137.99 264.293 137.87 264.686C137.743 265.073 137.587 265.376 137.4 265.596L136.84 265.276C137.013 265.056 137.157 264.78 137.27 264.446C137.377 264.113 137.43 263.766 137.43 263.406C137.43 262.926 137.357 262.573 137.21 262.346C137.057 262.113 136.843 261.996 136.57 261.996C136.377 261.996 136.227 262.06 136.12 262.186C136.007 262.313 135.923 262.473 135.87 262.666C135.81 262.86 135.753 263.116 135.7 263.436C135.62 263.863 135.54 264.206 135.46 264.466C135.373 264.726 135.23 264.95 135.03 265.136C134.83 265.316 134.553 265.406 134.2 265.406C133.76 265.406 133.4 265.223 133.12 264.856C132.84 264.49 132.7 263.98 132.7 263.326C132.7 262.986 132.747 262.646 132.84 262.306C132.927 261.966 133.043 261.686 133.19 261.466L133.76 261.776C133.46 262.21 133.31 262.726 133.31 263.326C133.31 263.78 133.39 264.123 133.55 264.356C133.71 264.583 133.92 264.696 134.18 264.696C134.38 264.696 134.54 264.633 134.66 264.506C134.78 264.373 134.87 264.21 134.93 264.016C134.983 263.823 135.04 263.556 135.1 263.216C135.18 262.796 135.26 262.46 135.34 262.206C135.42 261.953 135.557 261.736 135.75 261.556C135.943 261.376 136.21 261.286 136.55 261.286C137.01 261.286 137.377 261.48 137.65 261.866C137.917 262.246 138.05 262.776 138.05 263.456ZM137.68 257.204C137.8 257.337 137.893 257.504 137.96 257.704C138.02 257.897 138.05 258.101 138.05 258.314C138.05 258.807 137.917 259.187 137.65 259.454C137.383 259.721 137.007 259.854 136.52 259.854L133.34 259.854L133.34 260.794L132.74 260.794L132.74 259.854L131.59 259.854L131.59 259.144L132.74 259.144L132.74 257.544L133.34 257.544L133.34 259.144L136.48 259.144C136.793 259.144 137.033 259.067 137.2 258.914C137.36 258.754 137.44 258.527 137.44 258.234C137.44 258.087 137.417 257.947 137.37 257.814C137.323 257.674 137.257 257.554 137.17 257.454L137.68 257.204ZM132.74 255.911L132.74 255.201L138 255.201L138 255.911L132.74 255.911ZM131.59 255.551C131.59 255.698 131.54 255.821 131.44 255.921C131.34 256.021 131.22 256.071 131.08 256.071C130.947 256.071 130.83 256.021 130.73 255.921C130.63 255.821 130.58 255.698 130.58 255.551C130.58 255.405 130.63 255.281 130.73 255.181C130.823 255.081 130.937 255.031 131.07 255.031C131.217 255.031 131.34 255.081 131.44 255.181C131.54 255.281 131.59 255.405 131.59 255.551ZM132.7 250.546C132.7 249.886 132.893 249.362 133.28 248.976C133.66 248.582 134.217 248.386 134.95 248.386L138 248.386L138 249.096L135.02 249.096C134.473 249.096 134.057 249.232 133.77 249.506C133.483 249.779 133.34 250.169 133.34 250.676C133.34 251.242 133.51 251.692 133.85 252.026C134.183 252.352 134.647 252.516 135.24 252.516L138 252.516L138 253.226L132.74 253.226L132.74 252.546L133.71 252.546C133.39 252.352 133.143 252.086 132.97 251.746C132.79 251.399 132.7 250.999 132.7 250.546ZM132.74 241.569L137.36 241.569C138.253 241.569 138.913 241.789 139.34 242.229C139.773 242.662 139.99 243.319 139.99 244.199C139.99 244.685 139.917 245.149 139.77 245.589C139.63 246.022 139.433 246.375 139.18 246.649L138.64 246.289C138.867 246.035 139.043 245.729 139.17 245.369C139.297 245.002 139.36 244.619 139.36 244.219C139.36 243.552 139.203 243.062 138.89 242.749C138.583 242.435 138.103 242.279 137.45 242.279L136.78 242.279C137.113 242.499 137.367 242.789 137.54 243.149C137.713 243.502 137.8 243.895 137.8 244.329C137.8 244.822 137.693 245.272 137.48 245.679C137.26 246.079 136.957 246.395 136.57 246.629C136.177 246.855 135.733 246.969 135.24 246.969C134.747 246.969 134.307 246.855 133.92 246.629C133.533 246.395 133.233 246.079 133.02 245.679C132.807 245.279 132.7 244.829 132.7 244.329C132.7 243.882 132.79 243.479 132.97 243.119C133.15 242.759 133.41 242.469 133.75 242.249L132.74 242.249L132.74 241.569ZM137.17 244.259C137.17 243.879 137.09 243.535 136.93 243.229C136.763 242.922 136.533 242.685 136.24 242.519C135.947 242.345 135.613 242.259 135.24 242.259C134.867 242.259 134.537 242.345 134.25 242.519C133.957 242.685 133.73 242.922 133.57 243.229C133.403 243.529 133.32 243.872 133.32 244.259C133.32 244.639 133.4 244.982 133.56 245.289C133.72 245.589 133.947 245.825 134.24 245.999C134.533 246.165 134.867 246.249 135.24 246.249C135.613 246.249 135.947 246.165 136.24 245.999C136.533 245.825 136.763 245.589 136.93 245.289C137.09 244.982 137.17 244.639 137.17 244.259Z" fill="#145D80"/>
  <path d="M131 155.941L138 155.941L138 156.551L132.32 161.051L138 161.051L138 161.791L131 161.791L131 161.181L136.68 156.671L131 156.671L131 155.941ZM135.59 149.226L135.59 153.626C136.137 153.586 136.58 153.376 136.92 152.996C137.253 152.616 137.42 152.136 137.42 151.556C137.42 151.229 137.363 150.929 137.25 150.656C137.13 150.383 136.957 150.146 136.73 149.946L137.19 149.546C137.47 149.779 137.683 150.073 137.83 150.426C137.977 150.773 138.05 151.156 138.05 151.576C138.05 152.116 137.937 152.596 137.71 153.016C137.477 153.429 137.157 153.753 136.75 153.986C136.343 154.219 135.883 154.336 135.37 154.336C134.857 154.336 134.397 154.226 133.99 154.006C133.583 153.779 133.267 153.473 133.04 153.086C132.813 152.693 132.7 152.253 132.7 151.766C132.7 151.279 132.813 150.843 133.04 150.456C133.267 150.069 133.583 149.766 133.99 149.546C134.39 149.326 134.85 149.216 135.37 149.216L135.59 149.226ZM133.31 151.766C133.31 152.273 133.473 152.699 133.8 153.046C134.12 153.386 134.54 153.579 135.06 153.626L135.06 149.896C134.54 149.943 134.12 150.139 133.8 150.486C133.473 150.826 133.31 151.253 133.31 151.766ZM132.74 140.148L138 142.138L138 142.808L133.69 144.468L138 146.128L138 146.798L132.74 148.778L132.74 148.098L137.21 146.448L132.74 144.758L132.74 144.148L137.21 142.468L132.74 140.798L132.74 140.148Z" fill="#145D80"/>
  <rect x="256.5" y="214.5" width="91" height="91" rx="5.5" fill="white" stroke="#145D80"/>
  <path d="M281.795 240.6C282.867 240.6 283.707 240.856 284.315 241.368C284.923 241.88 285.227 242.584 285.227 243.48C285.227 244.376 284.923 245.08 284.315 245.592C283.707 246.096 282.867 246.348 281.795 246.348H279.539V249H278.651V240.6H281.795ZM281.771 245.568C282.603 245.568 283.239 245.388 283.679 245.028C284.119 244.66 284.339 244.144 284.339 243.48C284.339 242.8 284.119 242.28 283.679 241.92C283.239 241.552 282.603 241.368 281.771 241.368H279.539V245.568H281.771ZM287.619 243.924C287.819 243.5 288.115 243.18 288.507 242.964C288.907 242.748 289.399 242.64 289.983 242.64V243.468L289.779 243.456C289.115 243.456 288.595 243.66 288.219 244.068C287.843 244.476 287.655 245.048 287.655 245.784V249H286.803V242.688H287.619V243.924ZM294.047 249.06C293.439 249.06 292.891 248.924 292.403 248.652C291.915 248.372 291.531 247.988 291.251 247.5C290.971 247.012 290.831 246.46 290.831 245.844C290.831 245.228 290.971 244.676 291.251 244.188C291.531 243.7 291.915 243.32 292.403 243.048C292.891 242.776 293.439 242.64 294.047 242.64C294.655 242.64 295.203 242.776 295.691 243.048C296.179 243.32 296.559 243.7 296.831 244.188C297.111 244.676 297.251 245.228 297.251 245.844C297.251 246.46 297.111 247.012 296.831 247.5C296.559 247.988 296.179 248.372 295.691 248.652C295.203 248.924 294.655 249.06 294.047 249.06ZM294.047 248.304C294.495 248.304 294.895 248.204 295.247 248.004C295.607 247.796 295.887 247.504 296.087 247.128C296.287 246.752 296.387 246.324 296.387 245.844C296.387 245.364 296.287 244.936 296.087 244.56C295.887 244.184 295.607 243.896 295.247 243.696C294.895 243.488 294.495 243.384 294.047 243.384C293.599 243.384 293.195 243.488 292.835 243.696C292.483 243.896 292.203 244.184 291.995 244.56C291.795 244.936 291.695 245.364 291.695 245.844C291.695 246.324 291.795 246.752 291.995 247.128C292.203 247.504 292.483 247.796 292.835 248.004C293.195 248.204 293.599 248.304 294.047 248.304ZM304.751 240.096V249H303.935V247.752C303.679 248.176 303.339 248.5 302.915 248.724C302.499 248.948 302.027 249.06 301.499 249.06C300.907 249.06 300.371 248.924 299.891 248.652C299.411 248.38 299.035 248 298.763 247.512C298.491 247.024 298.355 246.468 298.355 245.844C298.355 245.22 298.491 244.664 298.763 244.176C299.035 243.688 299.411 243.312 299.891 243.048C300.371 242.776 300.907 242.64 301.499 242.64C302.011 242.64 302.471 242.748 302.879 242.964C303.295 243.172 303.635 243.48 303.899 243.888V240.096H304.751ZM301.571 248.304C302.011 248.304 302.407 248.204 302.759 248.004C303.119 247.796 303.399 247.504 303.599 247.128C303.807 246.752 303.911 246.324 303.911 245.844C303.911 245.364 303.807 244.936 303.599 244.56C303.399 244.184 303.119 243.896 302.759 243.696C302.407 243.488 302.011 243.384 301.571 243.384C301.123 243.384 300.719 243.488 300.359 243.696C300.007 243.896 299.727 244.184 299.519 244.56C299.319 244.936 299.219 245.364 299.219 245.844C299.219 246.324 299.319 246.752 299.519 247.128C299.727 247.504 300.007 247.796 300.359 248.004C300.719 248.204 301.123 248.304 301.571 248.304ZM312.812 242.688V249H311.996V247.848C311.772 248.232 311.464 248.532 311.072 248.748C310.68 248.956 310.232 249.06 309.728 249.06C308.904 249.06 308.252 248.832 307.772 248.376C307.3 247.912 307.064 247.236 307.064 246.348V242.688H307.916V246.264C307.916 246.928 308.08 247.432 308.408 247.776C308.736 248.12 309.204 248.292 309.812 248.292C310.476 248.292 311 248.092 311.384 247.692C311.768 247.284 311.96 246.72 311.96 246V242.688H312.812ZM317.814 249.06C317.19 249.06 316.63 248.924 316.134 248.652C315.646 248.38 315.262 248 314.982 247.512C314.702 247.016 314.562 246.46 314.562 245.844C314.562 245.228 314.702 244.676 314.982 244.188C315.262 243.7 315.646 243.32 316.134 243.048C316.63 242.776 317.19 242.64 317.814 242.64C318.358 242.64 318.842 242.748 319.266 242.964C319.698 243.172 320.038 243.48 320.286 243.888L319.65 244.32C319.442 244.008 319.178 243.776 318.858 243.624C318.538 243.464 318.19 243.384 317.814 243.384C317.358 243.384 316.946 243.488 316.578 243.696C316.218 243.896 315.934 244.184 315.726 244.56C315.526 244.936 315.426 245.364 315.426 245.844C315.426 246.332 315.526 246.764 315.726 247.14C315.934 247.508 316.218 247.796 316.578 248.004C316.946 248.204 317.358 248.304 317.814 248.304C318.19 248.304 318.538 248.228 318.858 248.076C319.178 247.924 319.442 247.692 319.65 247.38L320.286 247.812C320.038 248.22 319.698 248.532 319.266 248.748C318.834 248.956 318.35 249.06 317.814 249.06ZM325.354 248.616C325.194 248.76 324.994 248.872 324.754 248.952C324.522 249.024 324.278 249.06 324.022 249.06C323.43 249.06 322.974 248.9 322.654 248.58C322.334 248.26 322.174 247.808 322.174 247.224V243.408H321.046V242.688H322.174V241.308H323.026V242.688H324.946V243.408H323.026V247.176C323.026 247.552 323.118 247.84 323.302 248.04C323.494 248.232 323.766 248.328 324.118 248.328C324.294 248.328 324.462 248.3 324.622 248.244C324.79 248.188 324.934 248.108 325.054 248.004L325.354 248.616ZM282.245 255.096V264H281.429V262.752C281.173 263.176 280.833 263.5 280.409 263.724C279.993 263.948 279.521 264.06 278.993 264.06C278.401 264.06 277.865 263.924 277.385 263.652C276.905 263.38 276.529 263 276.257 262.512C275.985 262.024 275.849 261.468 275.849 260.844C275.849 260.22 275.985 259.664 276.257 259.176C276.529 258.688 276.905 258.312 277.385 258.048C277.865 257.776 278.401 257.64 278.993 257.64C279.505 257.64 279.965 257.748 280.373 257.964C280.789 258.172 281.129 258.48 281.393 258.888V255.096H282.245ZM279.065 263.304C279.505 263.304 279.901 263.204 280.253 263.004C280.613 262.796 280.893 262.504 281.093 262.128C281.301 261.752 281.405 261.324 281.405 260.844C281.405 260.364 281.301 259.936 281.093 259.56C280.893 259.184 280.613 258.896 280.253 258.696C279.901 258.488 279.505 258.384 279.065 258.384C278.617 258.384 278.213 258.488 277.853 258.696C277.501 258.896 277.221 259.184 277.013 259.56C276.813 259.936 276.713 260.364 276.713 260.844C276.713 261.324 276.813 261.752 277.013 262.128C277.221 262.504 277.501 262.796 277.853 263.004C278.213 263.204 278.617 263.304 279.065 263.304ZM290.114 261.108H284.834C284.882 261.764 285.134 262.296 285.59 262.704C286.046 263.104 286.622 263.304 287.318 263.304C287.71 263.304 288.07 263.236 288.398 263.1C288.726 262.956 289.01 262.748 289.25 262.476L289.73 263.028C289.45 263.364 289.098 263.62 288.674 263.796C288.258 263.972 287.798 264.06 287.294 264.06C286.646 264.06 286.07 263.924 285.566 263.652C285.07 263.372 284.682 262.988 284.402 262.5C284.122 262.012 283.982 261.46 283.982 260.844C283.982 260.228 284.114 259.676 284.378 259.188C284.65 258.7 285.018 258.32 285.482 258.048C285.954 257.776 286.482 257.64 287.066 257.64C287.65 257.64 288.174 257.776 288.638 258.048C289.102 258.32 289.466 258.7 289.73 259.188C289.994 259.668 290.126 260.22 290.126 260.844L290.114 261.108ZM287.066 258.372C286.458 258.372 285.946 258.568 285.53 258.96C285.122 259.344 284.89 259.848 284.834 260.472H289.31C289.254 259.848 289.018 259.344 288.602 258.96C288.194 258.568 287.682 258.372 287.066 258.372ZM297.047 257.688L294.239 264H293.363L290.567 257.688H291.455L293.819 263.064L296.207 257.688H297.047ZM303.567 261.108H298.287C298.335 261.764 298.587 262.296 299.043 262.704C299.499 263.104 300.075 263.304 300.771 263.304C301.163 263.304 301.523 263.236 301.851 263.1C302.179 262.956 302.463 262.748 302.703 262.476L303.183 263.028C302.903 263.364 302.551 263.62 302.127 263.796C301.711 263.972 301.251 264.06 300.747 264.06C300.099 264.06 299.523 263.924 299.019 263.652C298.523 263.372 298.135 262.988 297.855 262.5C297.575 262.012 297.435 261.46 297.435 260.844C297.435 260.228 297.567 259.676 297.831 259.188C298.103 258.7 298.471 258.32 298.935 258.048C299.407 257.776 299.935 257.64 300.519 257.64C301.103 257.64 301.627 257.776 302.091 258.048C302.555 258.32 302.919 258.7 303.183 259.188C303.447 259.668 303.579 260.22 303.579 260.844L303.567 261.108ZM300.519 258.372C299.911 258.372 299.399 258.568 298.983 258.96C298.575 259.344 298.343 259.848 298.287 260.472H302.763C302.707 259.848 302.471 259.344 302.055 258.96C301.647 258.568 301.135 258.372 300.519 258.372ZM305.313 255.096H306.165V264H305.313V255.096ZM311.116 264.06C310.508 264.06 309.96 263.924 309.472 263.652C308.984 263.372 308.6 262.988 308.32 262.5C308.04 262.012 307.9 261.46 307.9 260.844C307.9 260.228 308.04 259.676 308.32 259.188C308.6 258.7 308.984 258.32 309.472 258.048C309.96 257.776 310.508 257.64 311.116 257.64C311.724 257.64 312.272 257.776 312.76 258.048C313.248 258.32 313.628 258.7 313.9 259.188C314.18 259.676 314.32 260.228 314.32 260.844C314.32 261.46 314.18 262.012 313.9 262.5C313.628 262.988 313.248 263.372 312.76 263.652C312.272 263.924 311.724 264.06 311.116 264.06ZM311.116 263.304C311.564 263.304 311.964 263.204 312.316 263.004C312.676 262.796 312.956 262.504 313.156 262.128C313.356 261.752 313.456 261.324 313.456 260.844C313.456 260.364 313.356 259.936 313.156 259.56C312.956 259.184 312.676 258.896 312.316 258.696C311.964 258.488 311.564 258.384 311.116 258.384C310.668 258.384 310.264 258.488 309.904 258.696C309.552 258.896 309.272 259.184 309.064 259.56C308.864 259.936 308.764 260.364 308.764 260.844C308.764 261.324 308.864 261.752 309.064 262.128C309.272 262.504 309.552 262.796 309.904 263.004C310.264 263.204 310.668 263.304 311.116 263.304ZM319.311 257.64C319.903 257.64 320.439 257.776 320.919 258.048C321.399 258.312 321.775 258.688 322.047 259.176C322.319 259.664 322.455 260.22 322.455 260.844C322.455 261.476 322.319 262.036 322.047 262.524C321.775 263.012 321.399 263.392 320.919 263.664C320.447 263.928 319.911 264.06 319.311 264.06C318.799 264.06 318.335 263.956 317.919 263.748C317.511 263.532 317.175 263.22 316.911 262.812V266.328H316.059V257.688H316.875V258.936C317.131 258.52 317.467 258.2 317.883 257.976C318.307 257.752 318.783 257.64 319.311 257.64ZM319.251 263.304C319.691 263.304 320.091 263.204 320.451 263.004C320.811 262.796 321.091 262.504 321.291 262.128C321.499 261.752 321.603 261.324 321.603 260.844C321.603 260.364 321.499 259.94 321.291 259.572C321.091 259.196 320.811 258.904 320.451 258.696C320.091 258.488 319.691 258.384 319.251 258.384C318.803 258.384 318.399 258.488 318.039 258.696C317.687 258.904 317.407 259.196 317.199 259.572C316.999 259.94 316.899 260.364 316.899 260.844C316.899 261.324 316.999 261.752 317.199 262.128C317.407 262.504 317.687 262.796 318.039 263.004C318.399 263.204 318.803 263.304 319.251 263.304ZM323.841 260.376H326.985V261.12H323.841V260.376ZM294.066 272.64C294.858 272.64 295.478 272.868 295.926 273.324C296.382 273.78 296.61 274.452 296.61 275.34V279H295.758V275.424C295.758 274.768 295.598 274.268 295.278 273.924C294.966 273.58 294.522 273.408 293.946 273.408C293.29 273.408 292.774 273.612 292.398 274.02C292.022 274.42 291.834 274.976 291.834 275.688V279H290.982V275.424C290.982 274.768 290.822 274.268 290.502 273.924C290.19 273.58 289.742 273.408 289.158 273.408C288.51 273.408 287.994 273.612 287.61 274.02C287.234 274.42 287.046 274.976 287.046 275.688V279H286.194V272.688H287.01V273.84C287.234 273.456 287.546 273.16 287.946 272.952C288.346 272.744 288.806 272.64 289.326 272.64C289.854 272.64 290.31 272.752 290.694 272.976C291.086 273.2 291.378 273.532 291.57 273.972C291.802 273.556 292.134 273.232 292.566 273C293.006 272.76 293.506 272.64 294.066 272.64ZM304.44 276.108H299.16C299.208 276.764 299.46 277.296 299.916 277.704C300.372 278.104 300.948 278.304 301.644 278.304C302.036 278.304 302.396 278.236 302.724 278.1C303.052 277.956 303.336 277.748 303.576 277.476L304.056 278.028C303.776 278.364 303.424 278.62 303 278.796C302.584 278.972 302.124 279.06 301.62 279.06C300.972 279.06 300.396 278.924 299.892 278.652C299.396 278.372 299.008 277.988 298.728 277.5C298.448 277.012 298.308 276.46 298.308 275.844C298.308 275.228 298.44 274.676 298.704 274.188C298.976 273.7 299.344 273.32 299.808 273.048C300.28 272.776 300.808 272.64 301.392 272.64C301.976 272.64 302.5 272.776 302.964 273.048C303.428 273.32 303.792 273.7 304.056 274.188C304.32 274.668 304.452 275.22 304.452 275.844L304.44 276.108ZM301.392 273.372C300.784 273.372 300.272 273.568 299.856 273.96C299.448 274.344 299.216 274.848 299.16 275.472H303.636C303.58 274.848 303.344 274.344 302.928 273.96C302.52 273.568 302.008 273.372 301.392 273.372ZM309.402 272.64C310.194 272.64 310.822 272.872 311.286 273.336C311.758 273.792 311.994 274.46 311.994 275.34V279H311.142V275.424C311.142 274.768 310.978 274.268 310.65 273.924C310.322 273.58 309.854 273.408 309.246 273.408C308.566 273.408 308.026 273.612 307.626 274.02C307.234 274.42 307.038 274.976 307.038 275.688V279H306.186V272.688H307.002V273.852C307.234 273.468 307.554 273.172 307.962 272.964C308.378 272.748 308.858 272.64 309.402 272.64ZM317.631 278.616C317.471 278.76 317.271 278.872 317.031 278.952C316.799 279.024 316.555 279.06 316.299 279.06C315.707 279.06 315.251 278.9 314.931 278.58C314.611 278.26 314.451 277.808 314.451 277.224V273.408H313.323V272.688H314.451V271.308H315.303V272.688H317.223V273.408H315.303V277.176C315.303 277.552 315.395 277.84 315.579 278.04C315.771 278.232 316.043 278.328 316.395 278.328C316.571 278.328 316.739 278.3 316.899 278.244C317.067 278.188 317.211 278.108 317.331 278.004L317.631 278.616Z" fill="#145D80"/>
  <defs>
    <filter id="filter0_d" x="41" y="45" width="372" height="372" filterUnits="userSpaceOnUse" color-interpolation-filters="sRGB">
      <feFlood flood-opacity="0" result="BackgroundImageFix"/>
      <feColorMatrix in="SourceAlpha" type="matrix" values="0 0 0 0 0 0 0 0 0 0 0 0 0 0 0 0 0 0 127 0"/>
      <feOffset dy="4"/>
      <feGaussianBlur stdDeviation="15"/>
      <feColorMatrix type="matrix" values="0 0 0 0 0.0784314 0 0 0 0 0.364706 0 0 0 0 0.501961 0 0 0 0.2 0"/>
      <feBlend mode="normal" in2="BackgroundImageFix" result="effect1_dropShadow"/>
      <feBlend mode="normal" in="SourceGraphic" in2="effect1_dropShadow" result="shape"/>
    </filter>
    <linearGradient id="paint0_linear" x1="160.513" y1="154.637" x2="160.513" y2="685.515" gradientUnits="userSpaceOnUse">
      <stop stop-color="#145D80"/>
      <stop offset="1" stop-color="#55EBBE"/>
    </linearGradient>
  </defs>
</svg>
